[
    {
       "idLogement" : 1,
       "titre" : "Gold Coast Villa",
       "prix" : "299",
       "description" : "Vivez comme un locall! Situé à 15 pas de la plage, adorable villa dans un quartier très calme mais beau.    ",
       "categorie" : "Villa",
       "image" : "../assets/img/img1.jpg",
       "pays" : "Thailand"
    },
    {
        "idLogement" : 2,
        "titre" : "White Pool Apartment",
        "prix" : "177",
        "description" : "Appartement 1 chambre avec lit king size, salle de bain, cuisine et coin salon / séjour avec canapé-lit.   ",
        "categorie" : "Villa",
        "image" : "../assets/img/img2.jpg",
        "pays" : "Espagne"
    },
    {
        "idLogement" : 3,
        "titre" : "Beau chalet",
        "prix" : "195",
        "description" : "Beau pavillon situé dans la zone sud et surplombant les plages d'Ipanema et de Copacabana, superbe vue.    ",
        "categorie" : "Chalet",
        "image" : "../assets/img/img3.jpg",
        "pays" : "Bresil"
    },
    {
        "idLogement" : 4,
        "titre" : "Appartement Lumineux", 
        "prix" : "216",
        "description" : "Appartement moderne dans le centre de la zone de tram avec une vue fantastique sur les toits de Melbourne! ",
        "categorie" : "Appartement",
        "image" : "../assets/img/img6.jpg",
        "pays" : "Australie"
    },
    {
        "idLogement" : 5,
        "titre" : "Appartement vue Mer", 
        "prix" : "97",
        "description" : "Laissez-vous séduire par le luxe de ce studio rénové, offrant une vue sur les collines surplombant la côte.",
        "categorie" : "Appartement",
        "image" : "../assets/img/img7.jpg",
        "pays" : "Afrique"
    },
    {
        "idLogement" : 6,
        "titre" : "Chalet écologique", 
        "prix" : "70",
        "description" : "Ce chalet en bambou est un refuge isolé en bas d'un petit chemin, à seulement 5 minutes du centre d'Ubud.  ",
        "categorie" : "Chalet",
        "image" : "../assets/img/img8.jpg",
        "pays" : "Indonesie"
    },
    {
        "idLogement" : 7,
        "titre" : "Maison de luxe", 
        "prix" : "124",
        "description" : "Maison privée de luxe avec piscine située à coté de magazins, restaurants, coffee shop, bars, clubs...     ",
        "categorie" : "Maison",
        "image" : "../assets/img/img9.jpg",
        "pays" : "Mexique"
    },
    {
        "idLogement" : 8,
        "titre" : "Maison de bois", 
        "prix" : "73",
        "description" : "La maison en bois de bali est à seulement 3 minutes à pied de la plage et vue magnifique sur le jardin     ",
        "categorie" : "Maison",
        "image" : "../assets/img/img10.jpg",
        "pays" : "Indonesie"
    }
]
